Coefficients k,Relative Error Alpha_k,Relative Error Beta_k
0.00000000000000000000,0.00000000000000074022,0.00000000000000000000
1.00000000000000000000,0.00000000000000155813,0.00000000000000428831
2.00000000000000000000,0.00000000000000158659,0.00000000000000120845
3.00000000000000000000,0.00000000000000070410,0.00000000000000300396
4.00000000000000000000,0.00000000000000119854,0.00000000000000262579
5.00000000000000000000,0.00000000000000540086,0.00000000000000245349
6.00000000000000000000,0.00000000000001923369,0.00000000000001812497
7.00000000000000000000,0.00000000000003094298,0.00000000000007975295
8.00000000000000000000,0.00000000000083715052,0.00000000000023822350
9.00000000000000000000,0.00000000001100706530,0.00000000000349606896
10.00000000000000000000,0.00000000009881579220,0.00000000008978540151
11.00000000000000000000,0.00000000086243817754,0.00000000117423543606
12.00000000000000000000,0.00000000603575708086,0.00000000985807195952
13.00000000000000000000,0.00000002407998735754,0.00000006126819995817
14.00000000000000000000,0.00000001610707249880,0.00000031426159930883
15.00000000000000000000,0.00000075335042472187,0.00000145591575165717
16.00000000000000000000,0.00000093987956542109,0.00000439669907633518
17.00000000000000000000,0.00015408974361120179,0.00004875959230083561
18.00000000000000000000,0.00290465041471456760,0.00141151159832899331
19.00000000000000000000,0.18066542854411125862,0.97471347033392278901
20.00000000000000000000,2.39162076347387823026,5.71643374080043948108

